<?xml version="1.0" encoding="UTF-8" standalone="no"?>
<!-- Generator: Adobe Illustrator 19.2.1, SVG Export Plug-In . SVG Version: 6.00 Build 0)  -->

<svg
   xmlns:dc="http://purl.org/dc/elements/1.1/"
   xmlns:cc="http://creativecommons.org/ns#"
   xmlns:rdf="http://www.w3.org/1999/02/22-rdf-syntax-ns#"
   xmlns:svg="http://www.w3.org/2000/svg"
   xmlns="http://www.w3.org/2000/svg"
   xmlns:sodipodi="http://sodipodi.sourceforge.net/DTD/sodipodi-0.dtd"
   xmlns:inkscape="http://www.inkscape.org/namespaces/inkscape"
   version="1.1"
   id="svg4619"
   inkscape:version="0.92.2 (5c3e80d, 2017-08-06)"
   sodipodi:docname="karaoke-45.svg"
   x="0px"
   y="0px"
   width="45"
   height="45"
   viewBox="0 0 45 45"
   xml:space="preserve"><metadata
     id="metadata8"><rdf:RDF><cc:Work
         rdf:about=""><dc:format>image/svg+xml</dc:format><dc:type
           rdf:resource="http://purl.org/dc/dcmitype/StillImage" /><dc:title></dc:title></cc:Work></rdf:RDF></metadata><defs
     id="defs6" /><sodipodi:namedview
     pagecolor="#ffffff"
     bordercolor="#666666"
     borderopacity="1"
     objecttolerance="10"
     gridtolerance="10"
     guidetolerance="10"
     inkscape:pageopacity="0"
     inkscape:pageshadow="2"
     inkscape:window-width="1916"
     inkscape:window-height="1153"
     id="namedview4"
     showgrid="false"
     inkscape:zoom="5.6686394"
     inkscape:cx="-29.87399"
     inkscape:cy="14.663949"
     inkscape:window-x="0"
     inkscape:window-y="45"
     inkscape:window-maximized="0"
     inkscape:current-layer="svg4619" /><g
     transform="matrix(3.976542,0,0,3.976542,-7.8045513,-7.0363826)"
     id="g8"
     style="fill:#4a86cf;fill-opacity:1"><path
       inkscape:connector-curvature="0"
       d="M 12.1,2.952 A 2.988,2.988 0 0 0 6.99,4.917 l 3.142,3.142 A 2.988,2.988 0 0 0 12.1,2.952 Z"
       id="path4"
       style="fill:#4a86cf;fill-opacity:1" /><path
       inkscape:connector-curvature="0"
       d="M 4.672,8.255 2.55,10.377 a 1,1 0 0 0 0,1.414 l 0.707,0.707 a 1,1 0 0 0 1.414,0 L 6.792,10.377 8.914,8.255 6.793,6.134 Z M 5.413,10.342 4.706,9.635 6.793,7.548 7.5,8.255 Z"
       id="path6"
       style="fill:#4a86cf;fill-opacity:1" /></g></svg>