<?xml version="1.0" encoding="UTF-8" standalone="no"?>
<!-- Created with Inkscape (http://www.inkscape.org/) -->

<svg
   xmlns:dc="http://purl.org/dc/elements/1.1/"
   xmlns:cc="http://creativecommons.org/ns#"
   xmlns:rdf="http://www.w3.org/1999/02/22-rdf-syntax-ns#"
   xmlns:svg="http://www.w3.org/2000/svg"
   xmlns="http://www.w3.org/2000/svg"
   xmlns:sodipodi="http://sodipodi.sourceforge.net/DTD/sodipodi-0.dtd"
   xmlns:inkscape="http://www.inkscape.org/namespaces/inkscape"
   version="1.0"
   width="45"
   height="45"
   viewBox="0 0 45 45"
   id="svg1360"
   xml:space="preserve"
   sodipodi:version="0.32"
   inkscape:version="0.92.2 (5c3e80d, 2017-08-06)"
   sodipodi:docname="restaurant-45.svg"><metadata
     id="metadata19"><rdf:RDF><cc:Work
         rdf:about=""><dc:format>image/svg+xml</dc:format><dc:type
           rdf:resource="http://purl.org/dc/dcmitype/StillImage" /><dc:title></dc:title></cc:Work></rdf:RDF></metadata><sodipodi:namedview
     inkscape:window-height="702"
     inkscape:window-width="1444"
     inkscape:pageshadow="2"
     inkscape:pageopacity="0.0"
     guidetolerance="10.0"
     gridtolerance="10.0"
     objecttolerance="10.0"
     borderopacity="1.0"
     bordercolor="#666666"
     pagecolor="#ffffff"
     id="base"
     inkscape:zoom="7.6744655"
     inkscape:cx="-10.029193"
     inkscape:cy="10.940374"
     inkscape:window-x="171"
     inkscape:window-y="339"
     inkscape:current-layer="svg1360"
     showgrid="false"
     inkscape:window-maximized="0"
     fit-margin-top="0"
     fit-margin-left="0"
     fit-margin-right="0"
     fit-margin-bottom="0" /><defs
     id="defs1391" /><path
     inkscape:connector-curvature="0"
     id="path11774"
     d="M 12.473538,2.4258347 9.7969828,17.146889 c -0.3918477,2.154628 4.7682832,3.161012 4.6839722,5.35311 L 13.811816,39.89761 c -0.10278,2.674682 2.676556,2.676555 2.676556,2.676555 0,0 2.779335,-0.0019 2.676555,-2.676555 L 18.495788,22.499999 c -0.08404,-2.18835 4.639542,-3.160475 4.683972,-5.35311 L 20.503205,2.4258347 H 19.164927 L 19.834066,13.132056 17.826649,14.470334 17.157511,2.4258347 H 15.819233 L 15.150094,14.470334 13.142677,13.132056 13.811816,2.4258347 Z m 22.750722,0 c -1.971016,0 -5.25729,1.7528762 -6.571211,4.3807183 -1.094979,1.9710155 -1.458455,6.374217 -1.458455,9.002059 v 6.691387 c 0,2.189958 2.919854,2.676556 4.014833,2.676556 L 29.871149,39.89761 c -0.242228,2.665581 2.676555,2.676555 2.676555,2.676555 0,0 2.676556,0 2.676556,-2.676555 z"
     style="fill:#4a86cf;fill-opacity:1;stroke-width:2.6765554" /></svg>